Temperatuur on: 29.37
Temperatuur on: 29.00
Temperatuur on: 28.75
Temperatuur on: 28.50
Temperatuur on: 28.25
Temperatuur on: 28.00
Temperatuur on: 27.87
Temperatuur on: 27.62
Temperatuur on: 27.37
Temperatuur on: 27.25
Temperatuur on: 27.12
Temperatuur on: 27.00
Temperatuur on: 26.87
Temperatuur on: 26.75
Temperatuur on: 26.75
Temperatuur on: 26.75
Temperatuur on: 26.75
Temperatuur on: 26.62
Temperatuur on: 26.62
Temperatuur on: 26.62
Temperatuur on: 26.62
Temperatuur on: 26.62
Temperatuur on: 26.62
Temperatuur on: 26.62
Temperatuur on: 26.62
Temperatuur on: 26.62
Temperatuur on: 26.62
Temperatuur on: 26.62
Temperatuur on: 26.62
Temperatuur on: 26.62
Temperatuur on: 26.62
Temperatuur on: 26.62
Temperatuur on: 26.62
Temperatuur on: 26.62
Temperatuur on: 26.62
Temperatuur on: 26.62
Temperatuur on: 26.62
Temperatuur on: 26.62
Temperatuur on: 26.50
Temperatuur on: 26.37
Temperatuur on: 26.25
Temperatuur on: 26.12
Temperatuur on: 26.00
Temperatuur on: 25.87
Temperatuur on: 25.62
Temperatuur on: 25.50
Temperatuur on: 25.25
